{
    "apps": [
        {
            "name": "ntuple-socket.io",
            "script": "./src/index.js",
            "watch": false,
            "env": {
                "PORT": 8000,
                "NODE_ENV": "production",
                "LOG_LABEL": "final",
                "LOG_FILE_NAME": "final.log"
            }
        }
    ]
}